(footprint "CANBUS board" (version 20211014) (generator pcbnew)
  (layer "F.Cu")
  (tedit 63E2ACCD)
  (attr smd)
  (fp_text reference "REF**" (at 0 -17.15 unlocked) (layer "F.SilkS")
    (effects (font (size 1 1) (thickness 0.15)))
    (tstamp 4c9fdea7-ba0c-45cc-8f66-240980c37d5c)
  )
  (fp_text value "CANBUS board" (at 0 23.7 unlocked) (layer "F.Fab")
    (effects (font (size 1 1) (thickness 0.15)))
    (tstamp c58960d9-4cac-4036-ad2e-1aef26946dae)
  )
  (fp_text user "${REFERENCE}" (at -19.42 -0.06 90) (layer "F.Fab")
    (effects (font (size 1 1) (thickness 0.15)))
    (tstamp 4ffcfe4b-7253-4ed2-a2b4-067333d77a8e)
  )
  (fp_text user "${REFERENCE}" (at 0 25.2 unlocked) (layer "F.Fab")
    (effects (font (size 1 1) (thickness 0.15)))
    (tstamp 5b96c1ad-46ba-4366-8241-fbc1cd0e9bbd)
  )
  (fp_line (start 13.5 -5.1) (end 13.5 5.1) (layer "F.SilkS") (width 0.12) (tstamp b1ddb058-f7b2-429c-9489-f4e2242ad7e5))
  (fp_line (start -13.5 -5.1) (end 13.5 -5.1) (layer "F.SilkS") (width 0.12) (tstamp c1c799a0-3c93-493a-9ad7-8a0561bc69ee))
  (fp_line (start -13.5 5.1) (end 13.5 5.1) (layer "F.SilkS") (width 0.12) (tstamp d9c6d5d2-0b49-49ba-a970-cd2c32f74c54))
  (fp_line (start -13.5 -5.1) (end -13.5 5.1) (layer "F.SilkS") (width 0.12) (tstamp e3fc1e69-a11c-4c84-8952-fefb9372474e))
  (pad "1" thru_hole circle (at -12 -3) (size 1.35 1.35) (drill 1.02) (layers *.Cu *.Mask) (tstamp 8db712b3-af37-4f89-bed5-d9a45eac7ab4))
  (pad "2" thru_hole circle (at -12 -1) (size 1.35 1.35) (drill 1.02) (layers *.Cu *.Mask) (tstamp 7d222a92-0b52-4840-9def-5100b8266a13))
  (pad "3" thru_hole circle (at -12 1) (size 1.35 1.35) (drill 1.02) (layers *.Cu *.Mask) (tstamp af3a5ad9-3c72-4849-ad9e-dec0a7570455))
  (pad "4" thru_hole circle (at -12 3) (size 1.35 1.35) (drill 1.02) (layers *.Cu *.Mask) (tstamp 9736c41b-4d1a-42e1-b728-0ce4bd6edd1b))
)
