(kicad_sch (version 20230121) (generator eeschema)

  (uuid ffb2f36e-02a2-44e4-bd86-9ea83020ed7c)

  (paper "A4")

  (lib_symbols
    (symbol "Connector:Screw_Terminal_01x02" (pin_names (offset 1.016) hide) (in_bom yes) (on_board yes)
      (property "Reference" "J" (at 0 2.54 0)
        (effects (font (size 1.27 1.27)))
      )
      (property "Value" "Screw_Terminal_01x02" (at 0 -5.08 0)
        (effects (font (size 1.27 1.27)))
      )
      (property "Footprint" "" (at 0 0 0)
        (effects (font (size 1.27 1.27)) hide)
      )
      (property "Datasheet" "~" (at 0 0 0)
        (effects (font (size 1.27 1.27)) hide)
      )
      (property "ki_keywords" "screw terminal" (at 0 0 0)
        (effects (font (size 1.27 1.27)) hide)
      )
      (property "ki_description" "Generic screw terminal, single row, 01x02, script generated (kicad-library-utils/schlib/autogen/connector/)" (at 0 0 0)
        (effects (font (size 1.27 1.27)) hide)
      )
      (property "ki_fp_filters" "TerminalBlock*:*" (at 0 0 0)
        (effects (font (size 1.27 1.27)) hide)
      )
      (symbol "Screw_Terminal_01x02_1_1"
        (rectangle (start -1.27 1.27) (end 1.27 -3.81)
          (stroke (width 0.254) (type default))
          (fill (type background))
        )
        (circle (center 0 -2.54) (radius 0.635)
          (stroke (width 0.1524) (type default))
          (fill (type none))
        )
        (polyline
          (pts
            (xy -0.5334 -2.2098)
            (xy 0.3302 -3.048)
          )
          (stroke (width 0.1524) (type default))
          (fill (type none))
        )
        (polyline
          (pts
            (xy -0.5334 0.3302)
            (xy 0.3302 -0.508)
          )
          (stroke (width 0.1524) (type default))
          (fill (type none))
        )
        (polyline
          (pts
            (xy -0.3556 -2.032)
            (xy 0.508 -2.8702)
          )
          (stroke (width 0.1524) (type default))
          (fill (type none))
        )
        (polyline
          (pts
            (xy -0.3556 0.508)
            (xy 0.508 -0.3302)
          )
          (stroke (width 0.1524) (type default))
          (fill (type none))
        )
        (circle (center 0 0) (radius 0.635)
          (stroke (width 0.1524) (type default))
          (fill (type none))
        )
        (pin passive line (at -5.08 0 0) (length 3.81)
          (name "Pin_1" (effects (font (size 1.27 1.27))))
          (number "1" (effects (font (size 1.27 1.27))))
        )
        (pin passive line (at -5.08 -2.54 0) (length 3.81)
          (name "Pin_2" (effects (font (size 1.27 1.27))))
          (number "2" (effects (font (size 1.27 1.27))))
        )
      )
    )
    (symbol "Diode:1N4007" (pin_numbers hide) (pin_names hide) (in_bom yes) (on_board yes)
      (property "Reference" "D" (at 0 2.54 0)
        (effects (font (size 1.27 1.27)))
      )
      (property "Value" "1N4007" (at 0 -2.54 0)
        (effects (font (size 1.27 1.27)))
      )
      (property "Footprint" "Diode_THT:D_DO-41_SOD81_P10.16mm_Horizontal" (at 0 -4.445 0)
        (effects (font (size 1.27 1.27)) hide)
      )
      (property "Datasheet" "http://www.vishay.com/docs/88503/1n4001.pdf" (at 0 0 0)
        (effects (font (size 1.27 1.27)) hide)
      )
      (property "Sim.Device" "D" (at 0 0 0)
        (effects (font (size 1.27 1.27)) hide)
      )
      (property "Sim.Pins" "1=K 2=A" (at 0 0 0)
        (effects (font (size 1.27 1.27)) hide)
      )
      (property "ki_keywords" "diode" (at 0 0 0)
        (effects (font (size 1.27 1.27)) hide)
      )
      (property "ki_description" "1000V 1A General Purpose Rectifier Diode, DO-41" (at 0 0 0)
        (effects (font (size 1.27 1.27)) hide)
      )
      (property "ki_fp_filters" "D*DO?41*" (at 0 0 0)
        (effects (font (size 1.27 1.27)) hide)
      )
      (symbol "1N4007_0_1"
        (polyline
          (pts
            (xy -1.27 1.27)
            (xy -1.27 -1.27)
          )
          (stroke (width 0.254) (type default))
          (fill (type none))
        )
        (polyline
          (pts
            (xy 1.27 0)
            (xy -1.27 0)
          )
          (stroke (width 0) (type default))
          (fill (type none))
        )
        (polyline
          (pts
            (xy 1.27 1.27)
            (xy 1.27 -1.27)
            (xy -1.27 0)
            (xy 1.27 1.27)
          )
          (stroke (width 0.254) (type default))
          (fill (type none))
        )
      )
      (symbol "1N4007_1_1"
        (pin passive line (at -3.81 0 0) (length 2.54)
          (name "K" (effects (font (size 1.27 1.27))))
          (number "1" (effects (font (size 1.27 1.27))))
        )
        (pin passive line (at 3.81 0 180) (length 2.54)
          (name "A" (effects (font (size 1.27 1.27))))
          (number "2" (effects (font (size 1.27 1.27))))
        )
      )
    )
    (symbol "Motor:Fan" (pin_names (offset 0)) (in_bom yes) (on_board yes)
      (property "Reference" "M" (at 2.54 5.08 0)
        (effects (font (size 1.27 1.27)) (justify left))
      )
      (property "Value" "Fan" (at 2.54 -2.54 0)
        (effects (font (size 1.27 1.27)) (justify left top))
      )
      (property "Footprint" "" (at 0 0.254 0)
        (effects (font (size 1.27 1.27)) hide)
      )
      (property "Datasheet" "~" (at 0 0.254 0)
        (effects (font (size 1.27 1.27)) hide)
      )
      (property "ki_keywords" "Fan Motor" (at 0 0 0)
        (effects (font (size 1.27 1.27)) hide)
      )
      (property "ki_description" "Fan" (at 0 0 0)
        (effects (font (size 1.27 1.27)) hide)
      )
      (property "ki_fp_filters" "PinHeader*P2.54mm* TerminalBlock*" (at 0 0 0)
        (effects (font (size 1.27 1.27)) hide)
      )
      (symbol "Fan_0_1"
        (arc (start -2.54 -0.508) (mid 0.0028 0.9121) (end 0 3.81)
          (stroke (width 0) (type default))
          (fill (type none))
        )
        (polyline
          (pts
            (xy 0 -5.08)
            (xy 0 -4.572)
          )
          (stroke (width 0) (type default))
          (fill (type none))
        )
        (polyline
          (pts
            (xy 0 -2.2352)
            (xy 0 -2.6416)
          )
          (stroke (width 0) (type default))
          (fill (type none))
        )
        (polyline
          (pts
            (xy 0 4.2672)
            (xy 0 4.6228)
          )
          (stroke (width 0) (type default))
          (fill (type none))
        )
        (polyline
          (pts
            (xy 0 4.572)
            (xy 0 5.08)
          )
          (stroke (width 0) (type default))
          (fill (type none))
        )
        (circle (center 0 1.016) (radius 3.2512)
          (stroke (width 0.254) (type default))
          (fill (type none))
        )
        (arc (start 0 3.81) (mid 0.053 0.921) (end 2.54 -0.508)
          (stroke (width 0) (type default))
          (fill (type none))
        )
        (arc (start 2.54 -0.508) (mid 0 1.0618) (end -2.54 -0.508)
          (stroke (width 0) (type default))
          (fill (type none))
        )
      )
      (symbol "Fan_1_1"
        (pin passive line (at 0 7.62 270) (length 2.54)
          (name "+" (effects (font (size 1.27 1.27))))
          (number "1" (effects (font (size 1.27 1.27))))
        )
        (pin passive line (at 0 -5.08 90) (length 2.54)
          (name "-" (effects (font (size 1.27 1.27))))
          (number "2" (effects (font (size 1.27 1.27))))
        )
      )
    )
    (symbol "Switch:SW_SPST" (pin_names (offset 0) hide) (in_bom yes) (on_board yes)
      (property "Reference" "SW" (at 0 3.175 0)
        (effects (font (size 1.27 1.27)))
      )
      (property "Value" "SW_SPST" (at 0 -2.54 0)
        (effects (font (size 1.27 1.27)))
      )
      (property "Footprint" "" (at 0 0 0)
        (effects (font (size 1.27 1.27)) hide)
      )
      (property "Datasheet" "~" (at 0 0 0)
        (effects (font (size 1.27 1.27)) hide)
      )
      (property "ki_keywords" "switch lever" (at 0 0 0)
        (effects (font (size 1.27 1.27)) hide)
      )
      (property "ki_description" "Single Pole Single Throw (SPST) switch" (at 0 0 0)
        (effects (font (size 1.27 1.27)) hide)
      )
      (symbol "SW_SPST_0_0"
        (circle (center -2.032 0) (radius 0.508)
          (stroke (width 0) (type default))
          (fill (type none))
        )
        (polyline
          (pts
            (xy -1.524 0.254)
            (xy 1.524 1.778)
          )
          (stroke (width 0) (type default))
          (fill (type none))
        )
        (circle (center 2.032 0) (radius 0.508)
          (stroke (width 0) (type default))
          (fill (type none))
        )
      )
      (symbol "SW_SPST_1_1"
        (pin passive line (at -5.08 0 0) (length 2.54)
          (name "A" (effects (font (size 1.27 1.27))))
          (number "1" (effects (font (size 1.27 1.27))))
        )
        (pin passive line (at 5.08 0 180) (length 2.54)
          (name "B" (effects (font (size 1.27 1.27))))
          (number "2" (effects (font (size 1.27 1.27))))
        )
      )
    )
    (symbol "power:+48V" (power) (pin_names (offset 0)) (in_bom yes) (on_board yes)
      (property "Reference" "#PWR" (at 0 -3.81 0)
        (effects (font (size 1.27 1.27)) hide)
      )
      (property "Value" "+48V" (at 0 3.556 0)
        (effects (font (size 1.27 1.27)))
      )
      (property "Footprint" "" (at 0 0 0)
        (effects (font (size 1.27 1.27)) hide)
      )
      (property "Datasheet" "" (at 0 0 0)
        (effects (font (size 1.27 1.27)) hide)
      )
      (property "ki_keywords" "global power" (at 0 0 0)
        (effects (font (size 1.27 1.27)) hide)
      )
      (property "ki_description" "Power symbol creates a global label with name \"+48V\"" (at 0 0 0)
        (effects (font (size 1.27 1.27)) hide)
      )
      (symbol "+48V_0_1"
        (polyline
          (pts
            (xy -0.762 1.27)
            (xy 0 2.54)
          )
          (stroke (width 0) (type default))
          (fill (type none))
        )
        (polyline
          (pts
            (xy 0 0)
            (xy 0 2.54)
          )
          (stroke (width 0) (type default))
          (fill (type none))
        )
        (polyline
          (pts
            (xy 0 2.54)
            (xy 0.762 1.27)
          )
          (stroke (width 0) (type default))
          (fill (type none))
        )
      )
      (symbol "+48V_1_1"
        (pin power_in line (at 0 0 90) (length 0) hide
          (name "+48V" (effects (font (size 1.27 1.27))))
          (number "1" (effects (font (size 1.27 1.27))))
        )
      )
    )
    (symbol "power:GND" (power) (pin_names (offset 0)) (in_bom yes) (on_board yes)
      (property "Reference" "#PWR" (at 0 -6.35 0)
        (effects (font (size 1.27 1.27)) hide)
      )
      (property "Value" "GND" (at 0 -3.81 0)
        (effects (font (size 1.27 1.27)))
      )
      (property "Footprint" "" (at 0 0 0)
        (effects (font (size 1.27 1.27)) hide)
      )
      (property "Datasheet" "" (at 0 0 0)
        (effects (font (size 1.27 1.27)) hide)
      )
      (property "ki_keywords" "global power" (at 0 0 0)
        (effects (font (size 1.27 1.27)) hide)
      )
      (property "ki_description" "Power symbol creates a global label with name \"GND\" , ground" (at 0 0 0)
        (effects (font (size 1.27 1.27)) hide)
      )
      (symbol "GND_0_1"
        (polyline
          (pts
            (xy 0 0)
            (xy 0 -1.27)
            (xy 1.27 -1.27)
            (xy 0 -2.54)
            (xy -1.27 -1.27)
            (xy 0 -1.27)
          )
          (stroke (width 0) (type default))
          (fill (type none))
        )
      )
      (symbol "GND_1_1"
        (pin power_in line (at 0 0 270) (length 0) hide
          (name "GND" (effects (font (size 1.27 1.27))))
          (number "1" (effects (font (size 1.27 1.27))))
        )
      )
    )
    (symbol "power:PWR_FLAG" (power) (pin_numbers hide) (pin_names (offset 0) hide) (in_bom yes) (on_board yes)
      (property "Reference" "#FLG" (at 0 1.905 0)
        (effects (font (size 1.27 1.27)) hide)
      )
      (property "Value" "PWR_FLAG" (at 0 3.81 0)
        (effects (font (size 1.27 1.27)))
      )
      (property "Footprint" "" (at 0 0 0)
        (effects (font (size 1.27 1.27)) hide)
      )
      (property "Datasheet" "~" (at 0 0 0)
        (effects (font (size 1.27 1.27)) hide)
      )
      (property "ki_keywords" "flag power" (at 0 0 0)
        (effects (font (size 1.27 1.27)) hide)
      )
      (property "ki_description" "Special symbol for telling ERC where power comes from" (at 0 0 0)
        (effects (font (size 1.27 1.27)) hide)
      )
      (symbol "PWR_FLAG_0_0"
        (pin power_out line (at 0 0 90) (length 0)
          (name "pwr" (effects (font (size 1.27 1.27))))
          (number "1" (effects (font (size 1.27 1.27))))
        )
      )
      (symbol "PWR_FLAG_0_1"
        (polyline
          (pts
            (xy 0 0)
            (xy 0 1.27)
            (xy -1.016 1.905)
            (xy 0 2.54)
            (xy 1.016 1.905)
            (xy 0 1.27)
          )
          (stroke (width 0) (type default))
          (fill (type none))
        )
      )
    )
    (symbol "power:VCC" (power) (pin_names (offset 0)) (in_bom yes) (on_board yes)
      (property "Reference" "#PWR" (at 0 -3.81 0)
        (effects (font (size 1.27 1.27)) hide)
      )
      (property "Value" "VCC" (at 0 3.81 0)
        (effects (font (size 1.27 1.27)))
      )
      (property "Footprint" "" (at 0 0 0)
        (effects (font (size 1.27 1.27)) hide)
      )
      (property "Datasheet" "" (at 0 0 0)
        (effects (font (size 1.27 1.27)) hide)
      )
      (property "ki_keywords" "global power" (at 0 0 0)
        (effects (font (size 1.27 1.27)) hide)
      )
      (property "ki_description" "Power symbol creates a global label with name \"VCC\"" (at 0 0 0)
        (effects (font (size 1.27 1.27)) hide)
      )
      (symbol "VCC_0_1"
        (polyline
          (pts
            (xy -0.762 1.27)
            (xy 0 2.54)
          )
          (stroke (width 0) (type default))
          (fill (type none))
        )
        (polyline
          (pts
            (xy 0 0)
            (xy 0 2.54)
          )
          (stroke (width 0) (type default))
          (fill (type none))
        )
        (polyline
          (pts
            (xy 0 2.54)
            (xy 0.762 1.27)
          )
          (stroke (width 0) (type default))
          (fill (type none))
        )
      )
      (symbol "VCC_1_1"
        (pin power_in line (at 0 0 90) (length 0) hide
          (name "VCC" (effects (font (size 1.27 1.27))))
          (number "1" (effects (font (size 1.27 1.27))))
        )
      )
    )
  )

  (junction (at 185.42 93.98) (diameter 0) (color 0 0 0 0)
    (uuid 3689ceea-c0e6-40d1-b131-dbf9ec202295)
  )
  (junction (at 195.58 93.98) (diameter 0) (color 0 0 0 0)
    (uuid 509b60e2-dc81-4240-ace6-4f4956125fc9)
  )
  (junction (at 185.42 120.65) (diameter 0) (color 0 0 0 0)
    (uuid 58c58922-a68f-47b7-88ac-7d6d185f22ee)
  )
  (junction (at 158.75 96.52) (diameter 0) (color 0 0 0 0)
    (uuid 69731ba2-e0f1-4635-b0dc-1c7dd3595d92)
  )
  (junction (at 209.55 120.65) (diameter 0) (color 0 0 0 0)
    (uuid 6bdd77d7-2e95-4ff2-b77a-79e7ea09178f)
  )
  (junction (at 210.82 93.98) (diameter 0) (color 0 0 0 0)
    (uuid a7a8a38c-f627-4ef0-8561-03c2911aca54)
  )
  (junction (at 194.31 120.65) (diameter 0) (color 0 0 0 0)
    (uuid b1f9310a-da9b-4a1d-b7ef-08a749cd1dac)
  )
  (junction (at 210.82 63.5) (diameter 0) (color 0 0 0 0)
    (uuid cd104bbd-a886-450d-8bf7-759c03774b05)
  )
  (junction (at 195.58 63.5) (diameter 0) (color 0 0 0 0)
    (uuid ebe5750b-b36e-4ea2-838e-a3a03ab34ee9)
  )
  (junction (at 153.67 96.52) (diameter 0) (color 0 0 0 0)
    (uuid fec59af9-1979-4efb-becb-cf83ecaeeae5)
  )

  (wire (pts (xy 153.67 96.52) (xy 153.67 93.98))
    (stroke (width 0) (type default))
    (uuid 061b7171-dd06-4bad-b072-4325cad9f69d)
  )
  (wire (pts (xy 185.42 93.98) (xy 195.58 93.98))
    (stroke (width 0) (type default))
    (uuid 08e0e291-e165-4067-9a95-dded56e5a916)
  )
  (wire (pts (xy 195.58 93.98) (xy 196.85 93.98))
    (stroke (width 0) (type default))
    (uuid 096b1c6c-23fb-45d8-abcc-45d170a29b13)
  )
  (wire (pts (xy 158.75 96.52) (xy 162.56 96.52))
    (stroke (width 0) (type default))
    (uuid 09fc1d05-960d-41a3-b18e-0c468fcb1d30)
  )
  (wire (pts (xy 195.58 82.55) (xy 195.58 93.98))
    (stroke (width 0) (type default))
    (uuid 1979867b-6372-4e2a-ba3a-b3e353e3ca4f)
  )
  (wire (pts (xy 185.42 120.65) (xy 194.31 120.65))
    (stroke (width 0) (type default))
    (uuid 1fdc2138-b710-42cd-9bc0-d4bd1f3778f9)
  )
  (wire (pts (xy 185.42 63.5) (xy 185.42 93.98))
    (stroke (width 0) (type default))
    (uuid 20b76356-502b-4835-8a45-f39b4667fa0e)
  )
  (wire (pts (xy 195.58 63.5) (xy 196.85 63.5))
    (stroke (width 0) (type default))
    (uuid 253b8133-f2ae-44fa-978b-fe7bd5cbe8f1)
  )
  (wire (pts (xy 218.44 121.92) (xy 218.44 120.65))
    (stroke (width 0) (type default))
    (uuid 2641b21c-1392-4ca9-a630-0b73c9da5e94)
  )
  (wire (pts (xy 200.66 82.55) (xy 195.58 82.55))
    (stroke (width 0) (type default))
    (uuid 3bd39249-c70d-403d-8083-348c634dae24)
  )
  (wire (pts (xy 209.55 109.22) (xy 209.55 120.65))
    (stroke (width 0) (type default))
    (uuid 3fa57244-c5f9-4f90-b8b6-5b75ce95860e)
  )
  (wire (pts (xy 142.24 99.06) (xy 153.67 99.06))
    (stroke (width 0) (type default))
    (uuid 45c9d4ce-3f71-4af0-8d01-9b714745ef98)
  )
  (wire (pts (xy 209.55 63.5) (xy 210.82 63.5))
    (stroke (width 0) (type default))
    (uuid 4e242c01-7bc0-4677-8f54-7d10a6fbe4cd)
  )
  (wire (pts (xy 153.67 99.06) (xy 153.67 100.33))
    (stroke (width 0) (type default))
    (uuid 51b3e7ea-196f-4356-8c76-ad30a19077af)
  )
  (wire (pts (xy 210.82 63.5) (xy 219.71 63.5))
    (stroke (width 0) (type default))
    (uuid 5e4e4a5f-1a9a-4d57-93fd-79d990fe1ea0)
  )
  (wire (pts (xy 200.66 52.07) (xy 195.58 52.07))
    (stroke (width 0) (type default))
    (uuid 6000ffbb-5c1c-48d1-876f-918fc76c8e6f)
  )
  (wire (pts (xy 207.01 109.22) (xy 209.55 109.22))
    (stroke (width 0) (type default))
    (uuid 60b4c22f-48b9-4905-afc8-1c80c68530f8)
  )
  (wire (pts (xy 210.82 82.55) (xy 210.82 93.98))
    (stroke (width 0) (type default))
    (uuid 67d801dc-68db-4411-954e-4f7646868ab9)
  )
  (wire (pts (xy 158.75 96.52) (xy 158.75 120.65))
    (stroke (width 0) (type default))
    (uuid 6adbee75-68a4-449f-a51d-24d8de6e9a7d)
  )
  (wire (pts (xy 162.56 96.52) (xy 162.56 93.98))
    (stroke (width 0) (type default))
    (uuid 6fc63585-dbd1-401a-bc1d-240f7bcd5a05)
  )
  (wire (pts (xy 208.28 52.07) (xy 210.82 52.07))
    (stroke (width 0) (type default))
    (uuid 743c2c5e-c977-4059-9e9a-d0afaa612001)
  )
  (wire (pts (xy 208.28 120.65) (xy 209.55 120.65))
    (stroke (width 0) (type default))
    (uuid 8038f46b-41c2-453f-bf56-8b20ebe7f40c)
  )
  (wire (pts (xy 199.39 109.22) (xy 194.31 109.22))
    (stroke (width 0) (type default))
    (uuid 8bcea9f7-c9b9-4288-82f4-62f2ff1ec4cc)
  )
  (wire (pts (xy 219.71 95.25) (xy 219.71 93.98))
    (stroke (width 0) (type default))
    (uuid 932ece7c-c78b-4148-8d47-ed67675ddd6d)
  )
  (wire (pts (xy 55.88 123.19) (xy 69.85 123.19))
    (stroke (width 0) (type default))
    (uuid 95e53290-f206-4957-9204-0a7fa4a13641)
  )
  (wire (pts (xy 210.82 93.98) (xy 219.71 93.98))
    (stroke (width 0) (type default))
    (uuid 9c43d6fc-20ae-4a19-9012-9b34e386cb4e)
  )
  (wire (pts (xy 80.01 123.19) (xy 106.68 123.19))
    (stroke (width 0) (type default))
    (uuid 9e7666af-a855-4c99-8a43-165f9abb4a0c)
  )
  (wire (pts (xy 209.55 93.98) (xy 210.82 93.98))
    (stroke (width 0) (type default))
    (uuid a68a8bdb-c80d-4167-bbeb-4640225e909d)
  )
  (wire (pts (xy 142.24 96.52) (xy 153.67 96.52))
    (stroke (width 0) (type default))
    (uuid a7977c0e-5d3a-4167-a246-299c833b79fe)
  )
  (wire (pts (xy 194.31 120.65) (xy 195.58 120.65))
    (stroke (width 0) (type default))
    (uuid ad759b48-cdc8-4da2-85e4-8fd9bdcebac3)
  )
  (wire (pts (xy 185.42 93.98) (xy 185.42 120.65))
    (stroke (width 0) (type default))
    (uuid b1260c20-00c9-4c1c-818b-a5e3ce81b3b2)
  )
  (wire (pts (xy 55.88 120.65) (xy 55.88 123.19))
    (stroke (width 0) (type default))
    (uuid b778825c-0de0-42cf-85d2-233e868d3331)
  )
  (wire (pts (xy 209.55 120.65) (xy 218.44 120.65))
    (stroke (width 0) (type default))
    (uuid ba8bd097-b225-4d7f-843f-985455f3d614)
  )
  (wire (pts (xy 219.71 64.77) (xy 219.71 63.5))
    (stroke (width 0) (type default))
    (uuid bc0be4c2-c792-4229-9d00-ca496375fa43)
  )
  (wire (pts (xy 158.75 120.65) (xy 185.42 120.65))
    (stroke (width 0) (type default))
    (uuid c9738d87-adf5-49b1-b4b6-f800356d6404)
  )
  (wire (pts (xy 208.28 82.55) (xy 210.82 82.55))
    (stroke (width 0) (type default))
    (uuid d4b18998-2f20-43fb-b1b0-9a0c12f574e2)
  )
  (wire (pts (xy 153.67 96.52) (xy 158.75 96.52))
    (stroke (width 0) (type default))
    (uuid dbcf6719-3e45-4fff-82fa-32a9886c9e76)
  )
  (wire (pts (xy 185.42 63.5) (xy 195.58 63.5))
    (stroke (width 0) (type default))
    (uuid e268fa5f-a01d-4394-a859-8d3150add644)
  )
  (wire (pts (xy 210.82 52.07) (xy 210.82 63.5))
    (stroke (width 0) (type default))
    (uuid ead2ef56-546f-484b-961e-087ea335881e)
  )
  (wire (pts (xy 195.58 52.07) (xy 195.58 63.5))
    (stroke (width 0) (type default))
    (uuid fb585256-c95d-4143-97c5-e57466fcd381)
  )
  (wire (pts (xy 194.31 109.22) (xy 194.31 120.65))
    (stroke (width 0) (type default))
    (uuid fd32faf8-199a-49f6-8b80-730bbef952a3)
  )

  (text "5VDC Fans Power Supply" (at 135.89 83.82 0)
    (effects (font (size 1.27 1.27)) (justify left bottom))
    (uuid 1e58520b-8e81-4c22-8781-0942bfef649b)
  )

  (hierarchical_label "ON{slash}OFF MAJOR SWITCH" (shape input) (at 106.68 123.19 0) (fields_autoplaced)
    (effects (font (size 1.27 1.27)) (justify left))
    (uuid 9ead19bc-8d55-4fd3-a9f3-a6cc8287a13c)
  )

  (symbol (lib_id "Motor:Fan") (at 203.2 120.65 90) (unit 1)
    (in_bom yes) (on_board yes) (dnp no) (fields_autoplaced)
    (uuid 01811da2-fc58-4d92-a111-3c3814c20871)
    (property "Reference" "M1" (at 203.2 113.03 90)
      (effects (font (size 1.27 1.27)))
    )
    (property "Value" "Fan" (at 203.2 115.57 90)
      (effects (font (size 1.27 1.27)))
    )
    (property "Footprint" "Connector_PinHeader_2.54mm:PinHeader_1x02_P2.54mm_Vertical" (at 202.946 120.65 0)
      (effects (font (size 1.27 1.27)) hide)
    )
    (property "Datasheet" "~" (at 202.946 120.65 0)
      (effects (font (size 1.27 1.27)) hide)
    )
    (pin "1" (uuid d6a373c6-c853-44ed-a096-caa23080346f))
    (pin "2" (uuid 0d19f743-e3e9-4a2f-8bbf-b1b32726c5ed))
    (instances
      (project "Helmholtz-Cage-PCB"
        (path "/d9aaf895-1acf-4d4a-8c6d-173b9df47c18"
          (reference "M1") (unit 1)
        )
        (path "/d9aaf895-1acf-4d4a-8c6d-173b9df47c18/fc8e43cb-a968-4afb-924c-0f97813ab19f"
          (reference "M1") (unit 1)
        )
      )
    )
  )

  (symbol (lib_id "Motor:Fan") (at 204.47 63.5 90) (unit 1)
    (in_bom yes) (on_board yes) (dnp no) (fields_autoplaced)
    (uuid 05635f7d-23de-47de-9015-68b3e1558584)
    (property "Reference" "M1" (at 204.47 55.88 90)
      (effects (font (size 1.27 1.27)))
    )
    (property "Value" "Fan" (at 204.47 58.42 90)
      (effects (font (size 1.27 1.27)))
    )
    (property "Footprint" "Connector_PinHeader_2.54mm:PinHeader_1x02_P2.54mm_Vertical" (at 204.216 63.5 0)
      (effects (font (size 1.27 1.27)) hide)
    )
    (property "Datasheet" "~" (at 204.216 63.5 0)
      (effects (font (size 1.27 1.27)) hide)
    )
    (pin "1" (uuid 86671b52-1ccf-4cbb-acdd-8e365c9d09f5))
    (pin "2" (uuid b3579dd6-3383-4ab9-931a-3091b4462a85))
    (instances
      (project "Helmholtz-Cage-PCB"
        (path "/d9aaf895-1acf-4d4a-8c6d-173b9df47c18"
          (reference "M1") (unit 1)
        )
        (path "/d9aaf895-1acf-4d4a-8c6d-173b9df47c18/fc8e43cb-a968-4afb-924c-0f97813ab19f"
          (reference "M3") (unit 1)
        )
      )
    )
  )

  (symbol (lib_id "power:+48V") (at 55.88 120.65 0) (unit 1)
    (in_bom yes) (on_board yes) (dnp no) (fields_autoplaced)
    (uuid 0bdd7ca0-5c3c-46b2-912a-fb1a8dac3890)
    (property "Reference" "#PWR047" (at 55.88 124.46 0)
      (effects (font (size 1.27 1.27)) hide)
    )
    (property "Value" "+48V" (at 55.88 115.57 0)
      (effects (font (size 1.27 1.27)))
    )
    (property "Footprint" "" (at 55.88 120.65 0)
      (effects (font (size 1.27 1.27)) hide)
    )
    (property "Datasheet" "" (at 55.88 120.65 0)
      (effects (font (size 1.27 1.27)) hide)
    )
    (pin "1" (uuid 91f28926-b5a8-4fd8-a3dd-d3200f90f276))
    (instances
      (project "Helmholtz-Cage-PCB"
        (path "/d9aaf895-1acf-4d4a-8c6d-173b9df47c18/fc8e43cb-a968-4afb-924c-0f97813ab19f"
          (reference "#PWR047") (unit 1)
        )
        (path "/d9aaf895-1acf-4d4a-8c6d-173b9df47c18"
          (reference "#PWR05") (unit 1)
        )
      )
    )
  )

  (symbol (lib_id "power:VCC") (at 162.56 93.98 0) (unit 1)
    (in_bom yes) (on_board yes) (dnp no) (fields_autoplaced)
    (uuid 173a5a63-05ad-41e3-83ce-a7c72d2d482e)
    (property "Reference" "#PWR03" (at 162.56 97.79 0)
      (effects (font (size 1.27 1.27)) hide)
    )
    (property "Value" "VCC" (at 162.56 88.9 0)
      (effects (font (size 1.27 1.27)))
    )
    (property "Footprint" "" (at 162.56 93.98 0)
      (effects (font (size 1.27 1.27)) hide)
    )
    (property "Datasheet" "" (at 162.56 93.98 0)
      (effects (font (size 1.27 1.27)) hide)
    )
    (pin "1" (uuid 174308e9-a54f-4b7a-8b8f-6ec7d28e4012))
    (instances
      (project "Helmholtz-Cage-PCB"
        (path "/d9aaf895-1acf-4d4a-8c6d-173b9df47c18/fc8e43cb-a968-4afb-924c-0f97813ab19f"
          (reference "#PWR03") (unit 1)
        )
        (path "/d9aaf895-1acf-4d4a-8c6d-173b9df47c18"
          (reference "#PWR06") (unit 1)
        )
      )
    )
  )

  (symbol (lib_id "Switch:SW_SPST") (at 74.93 123.19 0) (unit 1)
    (in_bom yes) (on_board yes) (dnp no) (fields_autoplaced)
    (uuid 1abe9a35-8963-4f99-a6ff-353d0f2b1484)
    (property "Reference" "SW1" (at 74.93 116.84 0)
      (effects (font (size 1.27 1.27)))
    )
    (property "Value" "SW_SPST" (at 74.93 119.38 0)
      (effects (font (size 1.27 1.27)))
    )
    (property "Footprint" "TerminalBlock_Phoenix:TerminalBlock_Phoenix_MKDS-1,5-2_1x02_P5.00mm_Horizontal" (at 74.93 123.19 0)
      (effects (font (size 1.27 1.27)) hide)
    )
    (property "Datasheet" "~" (at 74.93 123.19 0)
      (effects (font (size 1.27 1.27)) hide)
    )
    (pin "1" (uuid 9b0904cd-19d8-40f4-8ae3-d908b2e4afa2))
    (pin "2" (uuid fabf36a7-399c-47ad-8d5b-3d3567e43dba))
    (instances
      (project "Helmholtz-Cage-PCB"
        (path "/d9aaf895-1acf-4d4a-8c6d-173b9df47c18/fc8e43cb-a968-4afb-924c-0f97813ab19f"
          (reference "SW1") (unit 1)
        )
      )
    )
  )

  (symbol (lib_id "Diode:1N4007") (at 204.47 52.07 0) (unit 1)
    (in_bom yes) (on_board yes) (dnp no) (fields_autoplaced)
    (uuid 22db572b-81e1-4961-a78d-196faeabc540)
    (property "Reference" "D3" (at 204.47 45.72 0)
      (effects (font (size 1.27 1.27)))
    )
    (property "Value" "1N4007" (at 204.47 48.26 0)
      (effects (font (size 1.27 1.27)))
    )
    (property "Footprint" "Diode_THT:D_DO-41_SOD81_P10.16mm_Horizontal" (at 204.47 56.515 0)
      (effects (font (size 1.27 1.27)) hide)
    )
    (property "Datasheet" "http://www.vishay.com/docs/88503/1n4001.pdf" (at 204.47 52.07 0)
      (effects (font (size 1.27 1.27)) hide)
    )
    (property "Sim.Device" "D" (at 204.47 52.07 0)
      (effects (font (size 1.27 1.27)) hide)
    )
    (property "Sim.Pins" "1=K 2=A" (at 204.47 52.07 0)
      (effects (font (size 1.27 1.27)) hide)
    )
    (property "PARTREV" " 637-1N4007 " (at 204.47 52.07 0)
      (effects (font (size 1.27 1.27)) hide)
    )
    (pin "1" (uuid f70f653a-3866-4540-aa67-b5b57edf7733))
    (pin "2" (uuid 4e5da728-3419-4850-a6ec-26b517046e3b))
    (instances
      (project "Helmholtz-Cage-PCB"
        (path "/d9aaf895-1acf-4d4a-8c6d-173b9df47c18/fc8e43cb-a968-4afb-924c-0f97813ab19f"
          (reference "D3") (unit 1)
        )
      )
    )
  )

  (symbol (lib_id "Diode:1N4007") (at 204.47 82.55 0) (unit 1)
    (in_bom yes) (on_board yes) (dnp no) (fields_autoplaced)
    (uuid 284c3a97-81f1-44e2-bc94-c20f1ee212a8)
    (property "Reference" "D2" (at 204.47 76.2 0)
      (effects (font (size 1.27 1.27)))
    )
    (property "Value" "1N4007" (at 204.47 78.74 0)
      (effects (font (size 1.27 1.27)))
    )
    (property "Footprint" "Diode_THT:D_DO-41_SOD81_P10.16mm_Horizontal" (at 204.47 86.995 0)
      (effects (font (size 1.27 1.27)) hide)
    )
    (property "Datasheet" "http://www.vishay.com/docs/88503/1n4001.pdf" (at 204.47 82.55 0)
      (effects (font (size 1.27 1.27)) hide)
    )
    (property "Sim.Device" "D" (at 204.47 82.55 0)
      (effects (font (size 1.27 1.27)) hide)
    )
    (property "Sim.Pins" "1=K 2=A" (at 204.47 82.55 0)
      (effects (font (size 1.27 1.27)) hide)
    )
    (property "PARTREV" " 637-1N4007 " (at 204.47 82.55 0)
      (effects (font (size 1.27 1.27)) hide)
    )
    (pin "1" (uuid ec01f98b-8f18-4220-bd77-18c94ded2c18))
    (pin "2" (uuid 057e0e3b-d1dc-49df-960a-258deacfeb13))
    (instances
      (project "Helmholtz-Cage-PCB"
        (path "/d9aaf895-1acf-4d4a-8c6d-173b9df47c18/fc8e43cb-a968-4afb-924c-0f97813ab19f"
          (reference "D2") (unit 1)
        )
      )
    )
  )

  (symbol (lib_id "power:GND") (at 219.71 64.77 0) (unit 1)
    (in_bom yes) (on_board yes) (dnp no) (fields_autoplaced)
    (uuid 328e1742-7039-46c3-b1c9-baf1389f1737)
    (property "Reference" "#PWR029" (at 219.71 71.12 0)
      (effects (font (size 1.27 1.27)) hide)
    )
    (property "Value" "GND" (at 219.71 69.215 0)
      (effects (font (size 1.27 1.27)))
    )
    (property "Footprint" "" (at 219.71 64.77 0)
      (effects (font (size 1.27 1.27)) hide)
    )
    (property "Datasheet" "" (at 219.71 64.77 0)
      (effects (font (size 1.27 1.27)) hide)
    )
    (pin "1" (uuid 1eb18149-9e79-4e79-83db-ab1594318a2a))
    (instances
      (project "Helmholtz-Cage-PCB"
        (path "/d9aaf895-1acf-4d4a-8c6d-173b9df47c18"
          (reference "#PWR029") (unit 1)
        )
        (path "/d9aaf895-1acf-4d4a-8c6d-173b9df47c18/fc8e43cb-a968-4afb-924c-0f97813ab19f"
          (reference "#PWR053") (unit 1)
        )
      )
      (project "Control_Box"
        (path "/eaef1172-3351-417c-bfc4-74a598f141cb"
          (reference "#PWR07") (unit 1)
        )
      )
    )
  )

  (symbol (lib_id "power:GND") (at 219.71 95.25 0) (unit 1)
    (in_bom yes) (on_board yes) (dnp no) (fields_autoplaced)
    (uuid 561863b2-3d7b-418c-913c-0374a25b5b2b)
    (property "Reference" "#PWR029" (at 219.71 101.6 0)
      (effects (font (size 1.27 1.27)) hide)
    )
    (property "Value" "GND" (at 219.71 99.695 0)
      (effects (font (size 1.27 1.27)))
    )
    (property "Footprint" "" (at 219.71 95.25 0)
      (effects (font (size 1.27 1.27)) hide)
    )
    (property "Datasheet" "" (at 219.71 95.25 0)
      (effects (font (size 1.27 1.27)) hide)
    )
    (pin "1" (uuid 44879077-5b5d-4ba9-b0b7-a8796071aaf8))
    (instances
      (project "Helmholtz-Cage-PCB"
        (path "/d9aaf895-1acf-4d4a-8c6d-173b9df47c18"
          (reference "#PWR029") (unit 1)
        )
        (path "/d9aaf895-1acf-4d4a-8c6d-173b9df47c18/fc8e43cb-a968-4afb-924c-0f97813ab19f"
          (reference "#PWR052") (unit 1)
        )
      )
      (project "Control_Box"
        (path "/eaef1172-3351-417c-bfc4-74a598f141cb"
          (reference "#PWR07") (unit 1)
        )
      )
    )
  )

  (symbol (lib_id "power:GND") (at 153.67 100.33 0) (unit 1)
    (in_bom yes) (on_board yes) (dnp no)
    (uuid 844e5c9d-b896-45c7-9be8-bb27e9a98a47)
    (property "Reference" "#PWR02" (at 153.67 106.68 0)
      (effects (font (size 1.27 1.27)) hide)
    )
    (property "Value" "GND" (at 153.67 104.902 0)
      (effects (font (size 1.27 1.27)))
    )
    (property "Footprint" "" (at 153.67 100.33 0)
      (effects (font (size 1.27 1.27)) hide)
    )
    (property "Datasheet" "" (at 153.67 100.33 0)
      (effects (font (size 1.27 1.27)) hide)
    )
    (pin "1" (uuid b8e94573-960a-4677-a270-2271999e7d2d))
    (instances
      (project "Helmholtz-Cage-PCB"
        (path "/d9aaf895-1acf-4d4a-8c6d-173b9df47c18/fc8e43cb-a968-4afb-924c-0f97813ab19f"
          (reference "#PWR02") (unit 1)
        )
        (path "/d9aaf895-1acf-4d4a-8c6d-173b9df47c18"
          (reference "#PWR01") (unit 1)
        )
      )
      (project "Control_Box"
        (path "/eaef1172-3351-417c-bfc4-74a598f141cb"
          (reference "#PWR021") (unit 1)
        )
      )
    )
  )

  (symbol (lib_id "Motor:Fan") (at 204.47 93.98 90) (unit 1)
    (in_bom yes) (on_board yes) (dnp no) (fields_autoplaced)
    (uuid 863a5481-615b-4d74-b02a-ed7d2d0cb635)
    (property "Reference" "M1" (at 204.47 86.36 90)
      (effects (font (size 1.27 1.27)))
    )
    (property "Value" "Fan" (at 204.47 88.9 90)
      (effects (font (size 1.27 1.27)))
    )
    (property "Footprint" "Connector_PinHeader_2.54mm:PinHeader_1x02_P2.54mm_Vertical" (at 204.216 93.98 0)
      (effects (font (size 1.27 1.27)) hide)
    )
    (property "Datasheet" "~" (at 204.216 93.98 0)
      (effects (font (size 1.27 1.27)) hide)
    )
    (pin "1" (uuid 885fa600-1c70-4828-a8a0-dd992ebfc285))
    (pin "2" (uuid 8bafef4e-5452-4a78-91e0-705ca25f12a9))
    (instances
      (project "Helmholtz-Cage-PCB"
        (path "/d9aaf895-1acf-4d4a-8c6d-173b9df47c18"
          (reference "M1") (unit 1)
        )
        (path "/d9aaf895-1acf-4d4a-8c6d-173b9df47c18/fc8e43cb-a968-4afb-924c-0f97813ab19f"
          (reference "M2") (unit 1)
        )
      )
    )
  )

  (symbol (lib_id "Diode:1N4007") (at 203.2 109.22 0) (unit 1)
    (in_bom yes) (on_board yes) (dnp no) (fields_autoplaced)
    (uuid 88b93c55-2644-48ab-917e-3d634e3f410c)
    (property "Reference" "D1" (at 203.2 102.87 0)
      (effects (font (size 1.27 1.27)))
    )
    (property "Value" "1N4007" (at 203.2 105.41 0)
      (effects (font (size 1.27 1.27)))
    )
    (property "Footprint" "Diode_THT:D_DO-41_SOD81_P10.16mm_Horizontal" (at 203.2 113.665 0)
      (effects (font (size 1.27 1.27)) hide)
    )
    (property "Datasheet" "http://www.vishay.com/docs/88503/1n4001.pdf" (at 203.2 109.22 0)
      (effects (font (size 1.27 1.27)) hide)
    )
    (property "Sim.Device" "D" (at 203.2 109.22 0)
      (effects (font (size 1.27 1.27)) hide)
    )
    (property "Sim.Pins" "1=K 2=A" (at 203.2 109.22 0)
      (effects (font (size 1.27 1.27)) hide)
    )
    (property "PARTREV" " 637-1N4007 " (at 203.2 109.22 0)
      (effects (font (size 1.27 1.27)) hide)
    )
    (pin "1" (uuid e6cd0825-620b-4651-bc9a-33195991d995))
    (pin "2" (uuid 65ee3009-fae0-42c9-9836-57766d1aaaab))
    (instances
      (project "Helmholtz-Cage-PCB"
        (path "/d9aaf895-1acf-4d4a-8c6d-173b9df47c18/fc8e43cb-a968-4afb-924c-0f97813ab19f"
          (reference "D1") (unit 1)
        )
      )
    )
  )

  (symbol (lib_id "power:PWR_FLAG") (at 153.67 93.98 0) (unit 1)
    (in_bom yes) (on_board yes) (dnp no) (fields_autoplaced)
    (uuid c0414d54-9ed4-4b57-ad78-75e390624bad)
    (property "Reference" "#FLG04" (at 153.67 92.075 0)
      (effects (font (size 1.27 1.27)) hide)
    )
    (property "Value" "PWR_FLAG" (at 153.67 88.9 0)
      (effects (font (size 1.27 1.27)))
    )
    (property "Footprint" "" (at 153.67 93.98 0)
      (effects (font (size 1.27 1.27)) hide)
    )
    (property "Datasheet" "~" (at 153.67 93.98 0)
      (effects (font (size 1.27 1.27)) hide)
    )
    (pin "1" (uuid 34a8d44e-6176-4356-8508-f9dd8e71927c))
    (instances
      (project "Helmholtz-Cage-PCB"
        (path "/d9aaf895-1acf-4d4a-8c6d-173b9df47c18"
          (reference "#FLG04") (unit 1)
        )
        (path "/d9aaf895-1acf-4d4a-8c6d-173b9df47c18/fc8e43cb-a968-4afb-924c-0f97813ab19f"
          (reference "#FLG01") (unit 1)
        )
      )
    )
  )

  (symbol (lib_id "Connector:Screw_Terminal_01x02") (at 137.16 99.06 180) (unit 1)
    (in_bom yes) (on_board yes) (dnp no) (fields_autoplaced)
    (uuid d62d6af0-3dc4-4058-be5c-ad869ea86e49)
    (property "Reference" "J3" (at 137.16 90.17 0)
      (effects (font (size 1.27 1.27)))
    )
    (property "Value" "V_in_Fan" (at 137.16 92.71 0)
      (effects (font (size 1.27 1.27)))
    )
    (property "Footprint" "TerminalBlock_Phoenix:TerminalBlock_Phoenix_MKDS-1,5-2_1x02_P5.00mm_Horizontal" (at 137.16 99.06 0)
      (effects (font (size 1.27 1.27)) hide)
    )
    (property "Datasheet" "~" (at 137.16 99.06 0)
      (effects (font (size 1.27 1.27)) hide)
    )
    (pin "1" (uuid f333752c-b105-4afb-9ea5-f5d389ea3aa5))
    (pin "2" (uuid 3577bcea-48a9-486a-909a-d51db1504675))
    (instances
      (project "Helmholtz-Cage-PCB"
        (path "/d9aaf895-1acf-4d4a-8c6d-173b9df47c18"
          (reference "J3") (unit 1)
        )
        (path "/d9aaf895-1acf-4d4a-8c6d-173b9df47c18/b33baa5a-bae5-48bd-8105-ba99a8d4760e"
          (reference "J1") (unit 1)
        )
        (path "/d9aaf895-1acf-4d4a-8c6d-173b9df47c18/807fbcf0-e937-4278-ae9b-91465801146a"
          (reference "J4") (unit 1)
        )
        (path "/d9aaf895-1acf-4d4a-8c6d-173b9df47c18/45804b70-aff4-47bf-b1f3-3d0541769f5c"
          (reference "J6") (unit 1)
        )
        (path "/d9aaf895-1acf-4d4a-8c6d-173b9df47c18/fc8e43cb-a968-4afb-924c-0f97813ab19f"
          (reference "J6") (unit 1)
        )
      )
    )
  )

  (symbol (lib_id "power:GND") (at 218.44 121.92 0) (unit 1)
    (in_bom yes) (on_board yes) (dnp no) (fields_autoplaced)
    (uuid f121e87b-0fa5-422c-8b9b-32d35de184d0)
    (property "Reference" "#PWR029" (at 218.44 128.27 0)
      (effects (font (size 1.27 1.27)) hide)
    )
    (property "Value" "GND" (at 218.44 126.365 0)
      (effects (font (size 1.27 1.27)))
    )
    (property "Footprint" "" (at 218.44 121.92 0)
      (effects (font (size 1.27 1.27)) hide)
    )
    (property "Datasheet" "" (at 218.44 121.92 0)
      (effects (font (size 1.27 1.27)) hide)
    )
    (pin "1" (uuid 6b9b3e05-2b25-4889-bc5f-4a9c9bba51a0))
    (instances
      (project "Helmholtz-Cage-PCB"
        (path "/d9aaf895-1acf-4d4a-8c6d-173b9df47c18"
          (reference "#PWR029") (unit 1)
        )
        (path "/d9aaf895-1acf-4d4a-8c6d-173b9df47c18/fc8e43cb-a968-4afb-924c-0f97813ab19f"
          (reference "#PWR051") (unit 1)
        )
      )
      (project "Control_Box"
        (path "/eaef1172-3351-417c-bfc4-74a598f141cb"
          (reference "#PWR07") (unit 1)
        )
      )
    )
  )
)
